…
 Min.   :1.513   Min.   :14.50   V:14   automatic:19   3:15   1: 7  
 1st Qu.:2.581   1st Qu.:16.89   S:18   manual   :13   4:12   2:10  
 Median :3.325   Median :17.71                         5: 5   3: 3  
 Mean   :3.217   Mean   :17.85                                4:10  
 3rd Qu.:3.610   3rd Qu.:18.90                                6: 1  
 Max.   :5.424   Max.   :22.90                                8: 1  
> 
> quantile(mtcars2$disp, probs = 0.25)
    25% 
120.825 
> data = dcast(data, am ~ vs, value.var='jumlah')
Error in value_vars(value.var, names(data)) : 
  value.var values [jumlah] are not found in 'data'.
> data
# A tibble: 32 x 12
   ...1                mpg   cyl  disp    hp  drat    wt  qsec vs    am         gear  carb
   <chr>             <dbl> <dbl> <dbl> <dbl> <dbl> <dbl> <dbl> <chr> <chr>     <dbl> <dbl>
 1 Mazda RX4          21       6  160    110  3.9   2.62  16.5 V     manual        4     4
 2 Mazda RX4 Wag      21       6  160    110  3.9   2.88  17.0 V     manual        4     4
 3 Datsun 710         22.8     4  108     93  3.85  2.32  18.6 S     manual        4     1
 4 Hornet 4 Drive     21.4     6  258    110  3.08  3.22  19.4 S     automatic     3     1
 5 Hornet Sportabout  18.7     8  360    175  3.15  3.44  17.0 V     automatic     3     2
 6 Valiant            18.1     6  225    105  2.76  3.46  20.2 S     automatic     3     1
 7 Duster 360         14.3     8  360    245  3.21  3.57  15.8 V     automatic     3     4
 8 Merc 240D          24.4     4  147.    62  3.69  3.19  20   S     automatic     4     2
 9 Merc 230           22.8     4  141.    95  3.92  3.15  22.9 S     automatic     4     2
10 Merc 280           19.2     6  168.   123  3.92  3.44  18.3 S     automatic     4     4
# ... with 22 more rows
…
